…
Selain fungsi-fungsi di atas Anda juga dapat mendapat informasi mengenai
dataset dengan menggunakan fungsi `vis_dat()` dari paket `visdat` dan
fungsi `skim()` dari paket `skimr`. Pasanglah kedua paket tersebut
terlebih dahulu melalui menu **Tools – Install Packages…** jika Anda
belum memasangnya. Perhatikan contoh penggunaan fungsi `vis_dat()` dan
`skim()` pada *chunk* berikut\!

``` r
library(visdat)
library(skimr)

typical_data # mencetak dataset typical_data
```

    ## # A tibble: 5,000 x 9
    ##    ID    Race     Age   Sex    `Height(cm)`    IQ Smokes Income   Died 
    ##    <chr> <fct>    <chr> <fct>         <dbl> <dbl> <lgl>  <fct>    <lgl>
    ##  1 0001  Black    <NA>  Male           176.   110 FALSE  4334.29  FALSE
    ##  2 0002  Black    25    Male           172.    84 TRUE   16682.37 TRUE 
    ##  3 0003  Black    31    Female         174.   115 FALSE  50402.01 FALSE
    ##  4 0004  Hispanic 27    Female         172.    84 FALSE  91442.86 FALSE
    ##  5 0005  <NA>     21    Female         158.   116 FALSE  75266.05 FALSE
    ##  6 0006  White    22    Female         170.    83 FALSE  12209.71 FALSE
    ##  7 0007  White    23    Female         164.   101 FALSE  7881.54  FALSE
    ##  8 0008  Black    21    Female         166.    97 FALSE  19944.79 FALSE
    ##  9 0009  White    <NA>  Female         152.    92 FALSE  18468.09 TRUE 
    ## 10 0010  Hispanic 27    Male           180.    99 FALSE  16468.84 TRUE 
    ## # ... with 4,990 more rows
…
Transformasi data umumnya merupakan sebuah rangkaian yang terdiri lebih
dari satu proses. Oleh karena itu, dalam tranformasi data menggunakan
dplyr sering digunakan operator *pipe* `%>%` untuk menghubungkan antara
satu fungsi ke fungsi selanjutnya. Berikut merupakan contoh transformasi
data storms (dari paket dplyr) tanpa dan dengan menggunakan operator
*pipe*:

``` r
storms
```

    ## # A tibble: 10,010 x 13
    ##    name   year month   day  hour   lat  long status category  wind pressure
    ##    <chr> <dbl> <dbl> <int> <dbl> <dbl> <dbl> <chr>  <ord>    <int>    <int>
    ##  1 Amy    1975     6    27     0  27.5 -79   tropi~ -1          25     1013
    ##  2 Amy    1975     6    27     6  28.5 -79   tropi~ -1          25     1013
    ##  3 Amy    1975     6    27    12  29.5 -79   tropi~ -1          25     1013
    ##  4 Amy    1975     6    27    18  30.5 -79   tropi~ -1          25     1013
    ##  5 Amy    1975     6    28     0  31.5 -78.8 tropi~ -1          25     1012
    ##  6 Amy    1975     6    28     6  32.4 -78.7 tropi~ -1          25     1012
    ##  7 Amy    1975     6    28    12  33.3 -78   tropi~ -1          25     1011
    ##  8 Amy    1975     6    28    18  34   -77   tropi~ -1          30     1006
    ##  9 Amy    1975     6    29     0  34.4 -75.8 tropi~ 0           35     1004
    ## 10 Amy    1975     6    29     6  34   -74.8 tropi~ 0           40     1002
    ## # ... with 10,000 more rows, and 2 more variables: ts_diameter <dbl>,
    ## #   hu_diameter <dbl>
…
