…
         ends_with("bina_marga_data")) %>% 
  gather("condition", "road_length", length_of_district_road_bad_damage_in_km_bina_marga_data:length_of_district_road_light_damage_in_km_bina_marga_data) %>% 
  mutate(
    condition = recode(condition,
                       length_of_district_road_bad_damage_in_km_bina_marga_data = "Bad damage",
                       length_of_district_road_light_damage_in_km_bina_marga_data = "Light damage",
                       length_of_district_road_fair_in_km_bina_marga_data = "Fair",
                       length_of_district_road_good_in_km_bina_marga_data = "Good"),
    condition = factor(condition, levels = c("Bad damage", "Light damage", "Fair", "Good"))
  ) %>% 
  drop_na(road_length)
jabar_road
```

    ## # A tibble: 64 x 4
    ##    district         year condition  road_length
    ##    <chr>           <dbl> <fct>            <dbl>
    ##  1 Bandung, Kab.    2000 Bad damage          75
    ##  2 Bekasi, Kab.     2000 Bad damage         143
    ##  3 Bogor, Kab.      2000 Bad damage          29
    ##  4 Ciamis, Kab.     2000 Bad damage         156
    ##  5 Cianjur, Kab.    2000 Bad damage          45
    ##  6 Cirebon, Kab.    2000 Bad damage          77
    ##  7 Garut, Kab.      2000 Bad damage         106
    ##  8 Indramayu, Kab.  2000 Bad damage         100
    ##  9 Karawang, Kab.   2000 Bad damage          51
    ## 10 Kuningan, Kab.   2000 Bad damage          19
    ## # ... with 54 more rows
…
``` r
highest_gdp <-
  gdp_id %>% 
  select(province, year, total_gdp_including_oil_and_gas) %>%
  group_by(province) %>% 
  drop_na() %>% 
  summarise(
    gdp = max(total_gdp_including_oil_and_gas, na.rm = TRUE),
    year = as.character(year[[which.max(total_gdp_including_oil_and_gas)]])
  )
highest_gdp
```

    ## # A tibble: 33 x 3
    ##    province             gdp year 
    ##    <chr>              <dbl> <chr>
    ##  1 Bali           32804381  2012 
    ##  2 Banten         99999846  2012 
    ##  3 Bengkulu        9464274. 2012 
    ##  4 DI Yogyakarta  23309218  2012 
    ##  5 DKI Jakarta   449800000  2012 
    ##  6 Gorontalo       3383620. 2012 
    ##  7 Jambi          20373533  2012 
    ##  8 Jawa Barat    364400000  2012 
    ##  9 Jawa Tengah   210800000  2012 
    ## 10 Jawa Timur    393700000  2012 
    ## # ... with 23 more rows
…
Kemudian, kita memadukan data `household_access` dengan data `geo_id`
menjadi data baru bernama `household_geo`. Untuk kali ini, kita hanya
mengambil data di tahun 2011.

``` r
household_geo <- full_join(
  filter(household_access, year == 2011),
  geo_id,
  by = c("province" = "name")
)
household_geo
```

    ## # A tibble: 39 x 65
    ##    province  year electricity_tot~ fixed_line_phon~ safe_sanitation
    ##    <chr>    <dbl>            <dbl>            <dbl>           <dbl>
    ##  1 Bali      2011             98.9            15.1             65.5
    ##  2 Banten    2011             99.3            11.6             62.9
    ##  3 Bengkulu  2011             87.7             6.18            66.6
    ##  4 DI Yogy~  2011             99.5             8.93            69.8
    ##  5 DKI Jak~  2011             99.9            40.0             76.3
    ##  6 Goronta~  2011             80.9             2.27            33.1
    ##  7 Jambi     2011             90.5             3.57            68.1
    ##  8 Jawa Ba~  2011             99.4             9.51            67.6
    ##  9 Jawa Te~  2011             99.4             4.83            64.5
    ## 10 Jawa Ti~  2011             99.3             7.10            61.6
    ## # ... with 29 more rows, and 60 more variables: safe_water <dbl>,
    ## #   adm1_code <chr>, OBJECTID_1 <int>, diss_me <int>, adm1_cod_1 <chr>,
    ## #   iso_3166_2 <chr>, wikipedia <chr>, iso_a2 <chr>, adm0_sr <int>,
    ## #   name_alt <chr>, name_local <chr>, type <chr>, type_en <chr>,
    ## #   code_local <chr>, code_hasc <chr>, note <chr>, hasc_maybe <chr>,
    ## #   region <chr>, region_cod <chr>, provnum_ne <int>, gadm_level <int>,
    ## #   check_me <int>, scalerank <int>, datarank <int>, abbrev <chr>,
    ## #   postal <chr>, area_sqkm <dbl>, sameascity <int>, labelrank <int>,
    ## #   featurecla <chr>, name_len <int>, mapcolor9 <int>, mapcolor13 <int>,
…
