…
Anda akan menggunakan dataset weather yang memiliki informasi mengenai
data cuaca di beberapa lokasi di area Bandung. Dataset tersebut
tersimpan pada direktori data-raw dengan nama weather.rda. Pergunakan
fungsi `load()` untuk mengimpor dataset tersebut menjadi obyek R dengan
nama weather dan kemudian pelajarilah strukturnya. Ada berapa lokasi dan
variabel cuaca yang terdapat dalam dataset tersebut? Kapan observasi
tersebut dimulai dan diakhiri?

``` r
load("../data/weather.rda")
weather
```

    ## # A tibble: 476 x 5
    ##    location time                temperature pressure windspeed
    ##    <chr>    <dttm>                    <dbl>    <dbl>     <dbl>
    ##  1 Lembang  2015-01-04 07:00:00        20.7    1011.     0.774
    ##  2 Lembang  2015-01-04 08:00:00        17.5    1013.     4.49 
    ##  3 Lembang  2015-01-04 09:00:00        18.1    1012.     6.63 
    ##  4 Lembang  2015-01-04 10:00:00        17.5    1012.     9.62 
    ##  5 Lembang  2015-01-04 11:00:00        18.8    1011.    10.1  
    ##  6 Lembang  2015-01-04 12:00:00        19.2    1011.     8.71 
    ##  7 Lembang  2015-01-04 13:00:00        19.3    1011.     8.37 
    ##  8 Lembang  2015-01-04 14:00:00        19.1    1011.     7.79 
    ##  9 Lembang  2015-01-04 15:00:00        19.6    1011.     9.34 
    ## 10 Lembang  2015-01-04 16:00:00        19.2    1011.     7.76 
    ## # ... with 466 more rows
…
